Dept,Class,ClassNbr,Style,StyleNumber,SizeScaling,Region,Location,Size,SizeNbr,Color,ColorNbr
106,Pants,1000,Drawstring Jogger,10827,Large,Central,101 Columbus,16,1600,Gray,198
106,Pants,1000,Drawstring Jogger,10827,Large,Central,101 Columbus,16,1600,Black,101
106,Pants,1000,Drawstring Jogger,10827,Large,Central,101 Columbus,10,1000,Gray,198
106,Pants,1000,Drawstring Jogger,10827,Large,South,105 Ft Worth,6,0600,Black,101
106,Pants,1000,Drawstring Jogger,10827,Large,South,105 Ft Worth,12,1200,Stone,195
106,Pants,1000,Drawstring Jogger,10827,Large,South,105 Ft Worth,10,1000,Cranberry,123
106,Pants,1000,Drawstring Jogger,10827,Large,South,105 Ft Worth,14,1400,Stone,195
106,Pants,1000,Drawstring Jogger,10827,Large,South,105 Ft Worth,14,1400,Olive,102
106,Pants,1000,Drawstring Jogger,10827,Large,North,106 Newark,12,1200,Stone,195
106,Pants,1000,Drawstring Jogger,10827,Large,South,108 Daytona,16,1600,Stone,195
106,Pants,1000,Drawstring Jogger,10827,Large,South,108 Daytona,8,0800,Black,101
106,Pants,1000,Drawstring Jogger,10827,Large,Central,123 Chicago,12,1200,Cranberry,123
106,Pants,1000,Drawstring Jogger,10827,Large,Central,123 Chicago,14,1400,Black,101
106,Pants,1000,Drawstring Jogger,10827,Large,Central,123 Chicago,16,1600,Cranberry,123
106,Pants,1000,Drawstring Jogger,10827,Normal,Internet,100 Internet,16,1600,Gray,198
106,Pants,1000,Drawstring Jogger,10827,Normal,Internet,100 Internet,10,1000,Black,101
106,Pants,1000,Drawstring Jogger,10827,Normal,Internet,100 Internet,10,1000,Gray,198
106,Pants,1000,Drawstring Jogger,10827,Normal,Internet,100 Internet,8,0800,Stone,195
106,Pants,1000,Drawstring Jogger,10827,Normal,Internet,100 Internet,10,1000,Gray,198
106,Pants,1000,Drawstring Jogger,10827,Normal,Internet,100 Internet,12,1200,Stone,195
106,Pants,1000,Drawstring Jogger,10827,Normal,Internet,100 Internet,16,1600,Black,101
106,Pants,1000,Drawstring Jogger,10827,Normal,Internet,100 Internet,14,1400,Gray,198
106,Pants,1000,Drawstring Jogger,10827,Normal,Internet,100 Internet,16,1600,Cranberry,123
106,Pants,1000,Drawstring Jogger,10827,Normal,Internet,100 Internet,12,1200,Black,101
106,Pants,1000,Drawstring Jogger,10827,Normal,North,102 Brooklyn,14,1400,Stone,195
106,Pants,1000,Drawstring Jogger,10827,Normal,North,102 Brooklyn,14,1400,Cranberry,123
106,Pants,1000,Drawstring Jogger,10827,Normal,North,102 Brooklyn,10,1000,Black,101
106,Pants,1000,Drawstring Jogger,10827,Normal,West,103 LA,12,1200,Cranberry,123
106,Pants,1000,Drawstring Jogger,10827,Normal,West,103 LA,12,1200,Olive,102
106,Pants,1000,Drawstring Jogger,10827,Normal,West,103 LA,10,1000,Cranberry,123
106,Pants,1000,Drawstring Jogger,10827,Normal,North,104 Smith Haven,6,0600,Cranberry,123
106,Pants,1000,Drawstring Jogger,10827,Normal,North,104 Smith Haven,10,1000,Black,101
106,Pants,1000,Drawstring Jogger,10827,Normal,North,109 Boston,14,1400,Olive,102
106,Pants,1000,Drawstring Jogger,10827,Normal,North,109 Boston,10,1000,Black,101
106,Pants,1000,Drawstring Jogger,10827,Normal,North,109 Boston,10,1000,Stone,195
106,Pants,1000,Drawstring Jogger,10827,Normal,Central,111 Oakbrook,10,1000,Black,101
106,Pants,1000,Drawstring Jogger,10827,Normal,Central,111 Oakbrook,16,1600,Black,101
106,Pants,1000,Drawstring Jogger,10827,Normal,West,112 Thousand Oaks,10,1000,Stone,195
106,Pants,1000,Drawstring Jogger,10827,Normal,West,112 Thousand Oaks,6,0600,Cranberry,123
106,Pants,1000,Drawstring Jogger,10827,Normal,West,112 Thousand Oaks,16,1600,Olive,102
106,Pants,1000,Drawstring Jogger,10827,Normal,West,112 Thousand Oaks,10,1000,Cranberry,123
106,Pants,1000,Drawstring Jogger,10827,Normal,West,112 Thousand Oaks,16,1600,Black,101
106,Pants,1000,Drawstring Jogger,10827,Normal,North,113 Buffalo,14,1400,Black,101
106,Pants,1000,Drawstring Jogger,10827,Normal,North,113 Buffalo,12,1200,Black,101
106,Pants,1000,Drawstring Jogger,10827,Normal,North,113 Buffalo,14,1400,Black,101
106,Pants,1000,Drawstring Jogger,10827,Normal,South,114 Orlando,12,1200,Olive,102
106,Pants,1000,Drawstring Jogger,10827,Normal,South,114 Orlando,12,1200,Olive,102
106,Pants,1000,Drawstring Jogger,10827,Normal,South,114 Orlando,14,1400,Cranberry,123
106,Pants,1000,Drawstring Jogger,10827,Normal,South,114 Orlando,16,1600,Cranberry,123
106,Pants,1000,Drawstring Jogger,10827,Normal,North,115 Providence,16,1600,Olive,102
106,Pants,1000,Drawstring Jogger,10827,Normal,North,115 Providence,8,0800,Cranberry,123
106,Pants,1000,Drawstring Jogger,10827,Normal,South,116 Houston,10,1000,Black,101
106,Pants,1000,Drawstring Jogger,10827,Normal,South,116 Houston,6,0600,Cranberry,123
106,Pants,1000,Drawstring Jogger,10827,Normal,South,116 Houston,14,1400,Stone,195
106,Pants,1000,Drawstring Jogger,10827,Normal,South,116 Houston,12,1200,Cranberry,123
106,Pants,1000,Drawstring Jogger,10827,Normal,North,117 Manhattan,6,0600,Black,101
106,Pants,1000,Drawstring Jogger,10827,Normal,North,117 Manhattan,14,1400,Black,101
106,Pants,1000,Drawstring Jogger,10827,Normal,North,117 Manhattan,10,1000,Stone,195
106,Pants,1000,Drawstring Jogger,10827,Normal,North,117 Manhattan,10,1000,Black,101
106,Pants,1000,Drawstring Jogger,10827,Normal,Central,121 Cleveland,10,1000,Olive,102
106,Pants,1000,Drawstring Jogger,10827,Normal,South,122 Greenville,6,0600,Black,101
106,Pants,1000,Drawstring Jogger,10827,Normal,South,122 Greenville,10,1000,Olive,102
106,Pants,1000,Drawstring Jogger,10827,Normal,South,122 Greenville,10,1000,Cranberry,123
106,Pants,1000,Drawstring Jogger,10827,Normal,South,124 Richmond,8,0800,Cranberry,123
106,Pants,1000,Drawstring Jogger,10827,Normal,South,124 Richmond,12,1200,Cranberry,123
106,Pants,1000,Drawstring Jogger,10827,Normal,South,124 Richmond,12,1200,Black,101
106,Pants,1000,Drawstring Jogger,10827,Normal,South,125 Dallas,12,1200,Cranberry,123
106,Pants,1000,Drawstring Jogger,10827,Normal,South,125 Dallas,14,1400,Cranberry,123
106,Pants,1000,Drawstring Jogger,10827,Normal,South,125 Dallas,6,0600,Stone,195
106,Pants,1000,Drawstring Jogger,10827,Normal,South,125 Dallas,8,0800,Cranberry,123
106,Pants,1000,Drawstring Jogger,10827,Small,West,107 Malibu,12,1200,Cranberry,123
106,Pants,1000,Drawstring Jogger,10827,Small,West,107 Malibu,10,1000,Black,101
106,Pants,1000,Drawstring Jogger,10827,Small,West,107 Malibu,8,0800,Olive,102
106,Pants,1000,Drawstring Jogger,10827,Small,West,107 Malibu,6,0600,Black,101
106,Pants,1000,Drawstring Jogger,10827,Small,West,107 Malibu,12,1200,Stone,195
106,Pants,1000,Drawstring Jogger,10827,Small,South,110 Atlanta,10,1000,Black,101
106,Pants,1000,Drawstring Jogger,10827,Small,South,110 Atlanta,10,1000,Olive,102
106,Pants,1000,Drawstring Jogger,10827,Small,South,110 Atlanta,6,0600,Black,101
106,Pants,1000,Drawstring Jogger,10827,Small,South,110 Atlanta,6,0600,Cranberry,123
106,Pants,1000,Drawstring Jogger,10827,Small,South,110 Atlanta,10,1000,Black,101
106,Pants,1000,Drawstring Jogger,10827,Small,West,118 Seattle,6,0600,Cranberry,123
106,Pants,1000,Drawstring Jogger,10827,Small,West,118 Seattle,14,1400,Black,101
106,Pants,1000,Drawstring Jogger,10827,Small,West,118 Seattle,6,0600,Black,101
106,Pants,1000,Drawstring Jogger,10827,Small,West,118 Seattle,16,1600,Olive,102
106,Pants,1000,Drawstring Jogger,10827,Small,West,118 Seattle,14,1400,Black,101
106,Pants,1000,Drawstring Jogger,10827,Small,South,119 Miami,12,1200,Gray,198
106,Pants,1000,Drawstring Jogger,10827,Small,South,119 Miami,16,1600,Olive,102
106,Pants,1000,Drawstring Jogger,10827,Small,South,119 Miami,16,1600,Stone,195
106,Pants,1000,Drawstring Jogger,10827,Small,South,119 Miami,6,0600,Olive,102
106,Pants,1000,Drawstring Jogger,10827,Small,South,119 Miami,6,0600,Gray,198
106,Pants,1000,Drawstring Jogger,10827,Small,West,120 San Francisco,6,0600,Stone,195
106,Pants,1000,Drawstring Jogger,10827,Small,West,120 San Francisco,8,0800,Stone,195
106,Pants,1000,Drawstring Jogger,10827,Small,West,120 San Francisco,14,1400,Gray,198
106,Pants,1000,Drawstring Jogger,10827,Small,West,120 San Francisco,10,1000,Olive,102
106,Pants,1000,Drawstring Jogger,10827,Small,West,120 San Francisco,16,1600,Stone,195
106,Pants,1000,Drawstring Jogger,10827,Small,West,120 San Francisco,8,0800,Cranberry,123
